<?xml version="1.0" encoding="UTF-8"?>
<svg xmlns="http://www.w3.org/2000/svg" xmlns:xlink="http://www.w3.org/1999/xlink"
     width="641" height="266" viewBox="0 0 641 266">
<defs>
</defs>
<rect x="8.5" y="8.5" width="624" height="249" fill="#c7ff00" stroke="black" stroke-width="17" rx="12" ry="12" />
<rect x="87" y="42" width="8" height="10" fill="black" />
<rect x="96" y="42" width="8" height="10" fill="black" />
<rect x="105" y="42" width="8" height="10" fill="black" />
<rect x="114" y="42" width="8" height="10" fill="black" />
<rect x="87" y="53" width="8" height="10" fill="black" />
<rect x="123" y="53" width="8" height="10" fill="black" />
<rect x="87" y="64" width="8" height="10" fill="black" />
<rect x="123" y="64" width="8" height="10" fill="black" />
<rect x="87" y="75" width="8" height="10" fill="black" />
<rect x="96" y="75" width="8" height="10" fill="black" />
<rect x="105" y="75" width="8" height="10" fill="black" />
<rect x="114" y="75" width="8" height="10" fill="black" />
<rect x="87" y="86" width="8" height="10" fill="black" />
<rect x="105" y="86" width="8" height="10" fill="black" />
<rect x="87" y="97" width="8" height="10" fill="black" />
<rect x="114" y="97" width="8" height="10" fill="black" />
<rect x="87" y="108" width="8" height="10" fill="black" />
<rect x="123" y="108" width="8" height="10" fill="black" />
<rect x="155" y="64" width="8" height="10" fill="black" />
<rect x="164" y="64" width="8" height="10" fill="black" />
<rect x="173" y="64" width="8" height="10" fill="black" />
<rect x="146" y="75" width="8" height="10" fill="black" />
<rect x="182" y="75" width="8" height="10" fill="black" />
<rect x="146" y="86" width="8" height="10" fill="black" />
<rect x="155" y="86" width="8" height="10" fill="black" />
<rect x="164" y="86" width="8" height="10" fill="black" />
<rect x="173" y="86" width="8" height="10" fill="black" />
<rect x="182" y="86" width="8" height="10" fill="black" />
<rect x="146" y="97" width="8" height="10" fill="black" />
<rect x="155" y="108" width="8" height="10" fill="black" />
<rect x="164" y="108" width="8" height="10" fill="black" />
<rect x="173" y="108" width="8" height="10" fill="black" />
<rect x="214" y="64" width="8" height="10" fill="black" />
<rect x="223" y="64" width="8" height="10" fill="black" />
<rect x="232" y="64" width="8" height="10" fill="black" />
<rect x="241" y="75" width="8" height="10" fill="black" />
<rect x="214" y="86" width="8" height="10" fill="black" />
<rect x="223" y="86" width="8" height="10" fill="black" />
<rect x="232" y="86" width="8" height="10" fill="black" />
<rect x="241" y="86" width="8" height="10" fill="black" />
<rect x="205" y="97" width="8" height="10" fill="black" />
<rect x="241" y="97" width="8" height="10" fill="black" />
<rect x="214" y="108" width="8" height="10" fill="black" />
<rect x="223" y="108" width="8" height="10" fill="black" />
<rect x="232" y="108" width="8" height="10" fill="black" />
<rect x="241" y="108" width="8" height="10" fill="black" />
<rect x="300" y="42" width="8" height="10" fill="black" />
<rect x="300" y="53" width="8" height="10" fill="black" />
<rect x="273" y="64" width="8" height="10" fill="black" />
<rect x="282" y="64" width="8" height="10" fill="black" />
<rect x="300" y="64" width="8" height="10" fill="black" />
<rect x="264" y="75" width="8" height="10" fill="black" />
<rect x="291" y="75" width="8" height="10" fill="black" />
<rect x="300" y="75" width="8" height="10" fill="black" />
<rect x="264" y="86" width="8" height="10" fill="black" />
<rect x="300" y="86" width="8" height="10" fill="black" />
<rect x="264" y="97" width="8" height="10" fill="black" />
<rect x="300" y="97" width="8" height="10" fill="black" />
<rect x="273" y="108" width="8" height="10" fill="black" />
<rect x="282" y="108" width="8" height="10" fill="black" />
<rect x="291" y="108" width="8" height="10" fill="black" />
<rect x="300" y="108" width="8" height="10" fill="black" />
<rect x="323" y="64" width="8" height="10" fill="black" />
<rect x="359" y="64" width="8" height="10" fill="black" />
<rect x="323" y="75" width="8" height="10" fill="black" />
<rect x="359" y="75" width="8" height="10" fill="black" />
<rect x="332" y="86" width="8" height="10" fill="black" />
<rect x="341" y="86" width="8" height="10" fill="black" />
<rect x="350" y="86" width="8" height="10" fill="black" />
<rect x="359" y="86" width="8" height="10" fill="black" />
<rect x="359" y="97" width="8" height="10" fill="black" />
<rect x="323" y="108" width="8" height="10" fill="black" />
<rect x="332" y="108" width="8" height="10" fill="black" />
<rect x="341" y="108" width="8" height="10" fill="black" />
<rect x="350" y="108" width="8" height="10" fill="black" />
<rect x="205" y="143" width="8" height="10" fill="black" />
<rect x="214" y="143" width="8" height="10" fill="black" />
<rect x="223" y="143" width="8" height="10" fill="black" />
<rect x="232" y="143" width="8" height="10" fill="black" />
<rect x="241" y="143" width="8" height="10" fill="black" />
<rect x="223" y="154" width="8" height="10" fill="black" />
<rect x="223" y="165" width="8" height="10" fill="black" />
<rect x="223" y="176" width="8" height="10" fill="black" />
<rect x="223" y="187" width="8" height="10" fill="black" />
<rect x="223" y="198" width="8" height="10" fill="black" />
<rect x="223" y="209" width="8" height="10" fill="black" />
<rect x="273" y="165" width="8" height="10" fill="black" />
<rect x="282" y="165" width="8" height="10" fill="black" />
<rect x="291" y="165" width="8" height="10" fill="black" />
<rect x="264" y="176" width="8" height="10" fill="black" />
<rect x="300" y="176" width="8" height="10" fill="black" />
<rect x="264" y="187" width="8" height="10" fill="black" />
<rect x="300" y="187" width="8" height="10" fill="black" />
<rect x="264" y="198" width="8" height="10" fill="black" />
<rect x="300" y="198" width="8" height="10" fill="black" />
<rect x="273" y="209" width="8" height="10" fill="black" />
<rect x="282" y="209" width="8" height="10" fill="black" />
<rect x="291" y="209" width="8" height="10" fill="black" />
<rect x="382" y="143" width="8" height="10" fill="black" />
<rect x="391" y="143" width="8" height="10" fill="black" />
<rect x="400" y="143" width="8" height="10" fill="black" />
<rect x="409" y="143" width="8" height="10" fill="black" />
<rect x="418" y="143" width="8" height="10" fill="black" />
<rect x="382" y="154" width="8" height="10" fill="black" />
<rect x="382" y="165" width="8" height="10" fill="black" />
<rect x="382" y="176" width="8" height="10" fill="black" />
<rect x="391" y="176" width="8" height="10" fill="black" />
<rect x="400" y="176" width="8" height="10" fill="black" />
<rect x="409" y="176" width="8" height="10" fill="black" />
<rect x="382" y="187" width="8" height="10" fill="black" />
<rect x="382" y="198" width="8" height="10" fill="black" />
<rect x="382" y="209" width="8" height="10" fill="black" />
<rect x="450" y="165" width="8" height="10" fill="black" />
<rect x="459" y="165" width="8" height="10" fill="black" />
<rect x="468" y="165" width="8" height="10" fill="black" />
<rect x="441" y="176" width="8" height="10" fill="black" />
<rect x="477" y="176" width="8" height="10" fill="black" />
<rect x="441" y="187" width="8" height="10" fill="black" />
<rect x="477" y="187" width="8" height="10" fill="black" />
<rect x="441" y="198" width="8" height="10" fill="black" />
<rect x="477" y="198" width="8" height="10" fill="black" />
<rect x="450" y="209" width="8" height="10" fill="black" />
<rect x="459" y="209" width="8" height="10" fill="black" />
<rect x="468" y="209" width="8" height="10" fill="black" />
<rect x="509" y="154" width="8" height="10" fill="black" />
<rect x="518" y="154" width="8" height="10" fill="black" />
<rect x="527" y="154" width="8" height="10" fill="black" />
<rect x="536" y="154" width="8" height="10" fill="black" />
<rect x="500" y="165" width="8" height="10" fill="black" />
<rect x="536" y="165" width="8" height="10" fill="black" />
<rect x="500" y="176" width="8" height="10" fill="black" />
<rect x="536" y="176" width="8" height="10" fill="black" />
<rect x="509" y="187" width="8" height="10" fill="black" />
<rect x="518" y="187" width="8" height="10" fill="black" />
<rect x="527" y="187" width="8" height="10" fill="black" />
<rect x="536" y="187" width="8" height="10" fill="black" />
<rect x="536" y="198" width="8" height="10" fill="black" />
<rect x="509" y="209" width="8" height="10" fill="black" />
<rect x="518" y="209" width="8" height="10" fill="black" />
<rect x="527" y="209" width="8" height="10" fill="black" />
</svg>